IS415-GAA - Take-home Exercise 2: Application of Spatial and Spatio-temporal Analysis Methods to Discover the Distribution of Dengue Fever in Tainan City, Taiwan
…
Dengue Dataset

# A tibble: 106,861 × 26
   發病日     個案研判日 通報日     性別  年齡層 居住縣市 居住鄉鎮 居住村里
   <date>     <chr>      <date>     <chr> <chr>  <chr>    <chr>    <chr>   
 1 1998-01-02 None       1998-01-07 男    40-44  屏東縣   屏東市   None    
 2 1998-01-03 None       1998-01-14 男    30-34  屏東縣   東港鎮   None    
 3 1998-01-13 None       1998-02-18 男    55-59  宜蘭縣   宜蘭市   None    
 4 1998-01-15 None       1998-01-23 男    35-39  高雄市   苓雅區   None    
 5 1998-01-20 None       1998-02-04 男    55-59  宜蘭縣   五結鄉   None    
 6 1998-01-22 None       1998-02-19 男    20-24  桃園市   蘆竹區   None    
 7 1998-01-23 None       1998-02-02 男    40-44  新北市   新店區   None    
 8 1998-01-26 None       1998-02-19 女    65-69  台北市   北投區   None    
 9 1998-02-11 None       1998-02-13 女    25-29  台南市   南區     None    
10 1998-02-16 None       1998-02-24 男    20-24  高雄市   楠梓區   None    
# ℹ 106,851 more rows
# ℹ 18 more variables: 最小統計區 <chr>, 最小統計區中心點X <chr>,
#   最小統計區中心點Y <chr>, 一級統計區 <chr>, 二級統計區 <chr>,
#   感染縣市 <chr>, 感染鄉鎮 <chr>, 感染村里 <chr>, 是否境外移入 <chr>,
#   感染國家 <chr>, 確定病例數 <dbl>, 居住村里代碼 <chr>, 感染村里代碼 <chr>,
#   血清型 <chr>, 內政部居住縣市代碼 <chr>, 內政部居住鄉鎮代碼 <chr>,
#   內政部感染縣市代碼 <chr>, 內政部感染鄉鎮代碼 <chr>
…
